{
  "settings": {
    "SECRET_KEY": "20cbp78v$x8r+6idxi+!66vdv67g1z2m(29&5deqpb*%nr=#1!",
    "DEBUG": true,
    "ALLOWED_HOSTS": [
      "*"
    ],
    "F4F_HOST": "localhost",
    "plot": {
      "width": 500,
      "height": 500,
      "fields_to_plot": [
        "B0 value",
        "Ip value",
        "Power nbi"
      ]
    },
    "analytics": {
      "workflow": "cwl",
      "results": "file",
      "filename": "analytics.json",
      "out_dir": "analytics",
      "d4p": {
        "impl_id": 1,
        "pckg": "f4f_pckg",
        "workspace_id": 1,
        "pe_name": "f4f_analytics",
        "reqs": "https://gitlab.com/project-dare/exec-api/-/raw/master/examples/f4f/requirements.txt"
      },
      "cwl": {
        "workflow_name": "analytics.cwl",
        "workflow_version": "v1.0"
      }
    },
    "pulse_max_download": 100,
    "DATABASES": {
      "default": {
        "ENGINE": "django.db.backends.mysql",
        "NAME": "f4f",
        "USER": "root",
        "PASSWORD": "root",
        "HOST": "f4f-demo-db",
        "PORT": "3306",
        "OPTIONS": {
          "charset": "utf8mb4"
        },
        "TEST": {
          "CHARSET": "utf8mb4",
          "COLLATION": "utf8mb4_unicode_ci"
        }
      },
      "test": {
        "ENGINE": "django.db.backends.sqlite3",
        "NAME": "f4f",
        "USER": "f4f",
        "PASSWORD": "f4f_PASS",
        "HOST": "localhost",
        "PORT": "3306",
        "OPTIONS": {
          "charset": "utf8mb4"
        },
        "TEST": {
          "CHARSET": "utf8mb4",
          "COLLATION": "utf8mb4_unicode_ci"
        }
      }
    },
    "use_database": "default"
  }
}
